[
    {
        "name": "ChatGpt",
        "modelList": [
            {
                "name": "Gpt-3.5",
                "modeList": [
                    {
                        "name": "4k context",
                        "id": 1
                    },
                    {
                        "name": "16k context",
                        "id": 2
                    }
                ]
            },
            {
                "name": "Gpt-4",
                "modeList": [
                    {
                        "name": "8k context",
                        "id": 3
                    },
                    {
                        "name": "32k context",
                        "id": 4
                    }
                ]
            }
        ]
    },
    {
        "name": "GigaChat"
    },
    {
        "name": "Bard"
    }
]